<svg width="28" height="10" viewBox="0 0 28 10" fill="none" xmlns="http://www.w3.org/2000/svg">
<path fill-rule="evenodd" clip-rule="evenodd" d="M28 5C28 5.34518 27.7202 5.625 27.375 5.625H2.69823L6.05671 8.62014C6.35658 8.88757 6.35247 9.35785 6.04797 9.62C5.79533 9.83749 5.42066 9.83421 5.17186 9.61233L0.836863 5.74633C0.390972 5.34867 0.390972 4.65133 0.836863 4.25368L5.17083 0.388586C5.41912 0.167162 5.79399 0.167168 6.04227 0.3886C6.33327 0.648138 6.33429 1.10293 6.04444 1.36376L2.69823 4.375H27.375C27.7202 4.375 28 4.65482 28 5Z" fill="#11369E"/>
</svg>
